Statistics for Social Scientists - 9. ANOVA and linear regression
…
Currently the data is in what is called wide format. We have a participant per row, and we have all their data associated in different columns. For a lot of analyses, we are better off with a long format or tidy format. For tidy data, each row represents a single observation, and the observations are grouped together into cases based on the value of a variable. Sounds confusing, let’s run some code that does this for us, and have a look at what changes

selfesteem_long <- selfesteem |> 
  pivot_longer(cols = t1:t3, names_to = "time", values_to = "score")

selfesteem_long

# A tibble: 30 × 3
      id time  score
   <int> <chr> <dbl>
 1     1 t1     4.01
 2     1 t2     5.18
 3     1 t3     7.11
 4     2 t1     2.56
 5     2 t2     6.91
 6     2 t3     6.31
 7     3 t1     3.24
 8     3 t2     4.44
 9     3 t3     9.78
10     4 t1     3.42
# ℹ 20 more rows
…
What changed? We went from a 37x52 dataset, to a 1887x3 dataset, where we now have ID as one column, Question (which was the columns going Q01, Q02,…, Q51) and the values from those columns in the Score column. We converted from a wide to a long format.

The convenience of having a long (or tidy) format is that we can calculate statistics (like means and SDs) far more conveniently.

In the code chunk below, replace the *** with the right variables

stars_mean <- stars_long |> 
  na.omit() |> #remove any non-responses
  group_by(***) |> 
  summarise(mean_anxiety = mean(***))

The next step is to join the two datasets together (stars_mean and engage) using inner_join() which we used in last week’s worksheet. Using the same code structure as last week, but replacing the variables as needed, can you get the same output below saved to an object called data?

# A tibble: 37 × 3
      ID mean_anxiety n_weeks
   <dbl>        <dbl>   <dbl>
 1     3         1.06       5
 2     7         2.71       2
 3    12         2.24       3
 4    16         2.86       2
 5    23         1.71       6
 6    29         1.80       7
 7    39         1.96       2
 8    42         2.24       7
 9    43         2.69       5
10    44         1.92       4
# ℹ 27 more rows
…
Data is simulated using Fry and Cox (1970) as a basis4

set.seed(0603) #set the seed for replicability

#generate some data, with length sampled from the normal distribution
trout <- tibble(
  waterspeed = c(rep("fast", 20), rep("slow", 20), rep("very slow", 20)),
  length = c(rnorm(20, 50, 10), rnorm(20, 60, 10), rnorm(20, 65, 10))
) |> 
  mutate(length = round(length, 2))

trout

# A tibble: 60 × 2
   waterspeed length
   <chr>       <dbl>
 1 fast         66.5
 2 fast         46.5
 3 fast         49.0
 4 fast         59.4
 5 fast         52.2
 6 fast         77.0
 7 fast         44.8
 8 fast         39.6
 9 fast         49.3
10 fast         71.7
# ℹ 50 more rows
…
